.................
----------------------------------------------------------------------
Ran 17 tests in 0.042s

OK
Name             Stmts   Miss Branch BrPart  Cover   Missing
------------------------------------------------------------
Collatz.py          48      0     18      0   100%
TestCollatz.py      68      0      0      0   100%
------------------------------------------------------------
TOTAL              116      0     18      0   100%
