899843 921049 476
264288 422900 449
202854 239748 443
698647 69002 509
453889 838048 525
505533 890892 525
553960 151797 470
896808 91767 525
432741 995590 525
425663 947836 525
523789 12109 470
905921 592713 525
538912 560943 452
192916 11267 383
386669 313011 441
227050 413954 449
987143 978597 427
322515 817326 509
614387 262577 470
408453 28668 443
467690 571694 470
356430 259834 441
469536 202793 449
979007 442783 525
772762 659054 504
8935 745730 509
740762 988011 525
749152 400058 509
973239 522205 525
413156 810875 509
558948 285118 470
433670 602302 470
159230 757024 509
249384 879449 525
563565 158658 470
406825 589516 470
696429 499242 509
153745 541660 470
724056 601116 509
619840 612940 447
672495 87330 509
543491 238905 470
826488 318068 509
992995 315010 525
196231 214808 373
11089 298383 443
109066 435101 449
825279 827947 419
389148 145781 443
275702 510307 449
656265 830303 504
990844 449111 525
776783 214491 509
773401 790107 437
579182 656140 509
488845 128286 449
870597 96739 525
738867 632431 504
667852 731062 504
410710 619096 470
122318 155902 375
167630 199719 365
477130 68532 449
753350 50595 509
633540 947647 525
55107 97080 351
841402 654555 525
408747 228402 443
168930 345254 443
259599 196919 443
514028 94088 470
471882 462561 413
695075 524257 509
873812 269170 525
946185 604870 525
729077 888068 525
513974 883591 525
408860 880377 525
475818 961697 525
683535 346041 509
498376 146475 449
766255 795130 468
595592 210641 470
11005 80785 351
358600 411169 449
635307 693803 442
445443 762035 509
227531 381243 443
840815 184580 525
408455 592081 470
191819 369651 443
240515 410586 449
515009 538134 439
91328 431469 449
74427 257010 443
917818 460179 525
454716 871947 525
440735 734030 509
206645 251078 443
930022 638485 525
46032 228226 386
160676 668563 509
493436 524381 470
397787 280071 441
941833 517402 525
118561 50497 354
381335 91554 443
741479 750101 393
645503 345976 509
889051 676786 525
660120 343597 509
986642 222576 525
754776 264048 509
488661 528459 470
598541 532879 452
223314 168587 386
925672 610971 525
483125 747151 509
445082 92460 449
549735 38910 470
537461 391538 470
37633 745045 509
934486 607072 525
889061 817742 525
17125 731611 509
501862 176888 449
576723 872602 525
4833 664957 509
931684 505275 525
902996 606429 525
196698 619967 470
410732 289447 449
446500 858468 525
40769 64421 340
550448 693383 509
222500 620680 470
310026 103876 443
730693 522751 509
575291 364151 470
895685 855471 445
566951 163910 470
245392 804590 509
672629 165969 509
106720 265670 443
757797 674614 504
76514 253792 443
612874 127161 470
34584 176542 383
732160 574959 509
584029 124159 470
96700 847530 525
430465 149427 449
463601 661659 509
882753 666565 525
84135 831534 509
705741 956418 525
763310 771407 468
986686 278312 525
948317 384874 525
378054 620121 470
922191 406261 525
414886 229694 449
277163 539633 470
270711 79460 443
843724 961100 507
107062 750914 509
259208 539337 470
815644 521582 509
371827 600694 470
98880 477694 449
762797 771016 468
429637 427489 374
66042 376578 443
527844 37317 470
169008 899110 525
403901 633305 509
197349 654453 509
533402 439173 470
526111 325591 470
651281 329395 509
789972 177774 509
946472 391828 525
407681 163978 443
742274 816682 468
402339 272366 441
548273 760996 509
137345 243874 443
75872 720066 509
597900 826419 509
961445 384852 525
887771 963361 507
21648 571077 470
52878 240966 443
191155 819769 509
251891 413032 449
195181 809044 509
571815 362328 470
812901 235589 509
479210 43497 449
417654 586882 470
