...............
----------------------------------------------------------------------
Ran 15 tests in 12.604s

OK
Name             Stmts   Miss Branch BrPart  Cover   Missing
------------------------------------------------------------
Collatz.py          54      0     22      0   100%
TestCollatz.py      66      0      0      0   100%
------------------------------------------------------------
TOTAL              120      0     22      0   100%
