....................
----------------------------------------------------------------------
Ran 20 tests in 0.219s

OK
Name             Stmts   Miss Branch BrPart  Cover   Missing
------------------------------------------------------------
Collatz.py          61      0     18      1    99%   63->66
TestCollatz.py      89      0      0      0   100%
------------------------------------------------------------
TOTAL              150      0     18      1    99%
