....................
----------------------------------------------------------------------
Ran 20 tests in 0.048s

OK
Name                                    Stmts   Miss Branch BrPart  Cover   Missing
-----------------------------------------------------------------------------------
Collatz.py                                 62      0     18      0   100%
TestCollatz.py                             90      0      0      0   100%
venv\Lib\site-packages\_virtualenv.py      79     78     22      1     2%   4-54, 57-130
-----------------------------------------------------------------------------------
TOTAL                                     231     78     40      1    63%
