......................
----------------------------------------------------------------------
Ran 22 tests in 0.022s

OK
Name             Stmts   Miss Branch BrPart  Cover   Missing
------------------------------------------------------------
Collatz.py          31      0     10      0   100%
TestCollatz.py      96      0      0      0   100%
------------------------------------------------------------
TOTAL              127      0     10      0   100%
