...x....x......xxx...........
----------------------------------------------------------------------
Ran 29 tests in 0.091s

OK (expected failures=5)
Name             Stmts   Miss Branch BrPart  Cover   Missing
------------------------------------------------------------
Collatz.py          68      0     40      0   100%
TestCollatz.py     113      0      0      0   100%
cache.py             2      0      0      0   100%
------------------------------------------------------------
TOTAL              183      0     40      0   100%
